…
## Joining, by = "data"

vaccinations_by_date

## # A tibble: 28 x 24
##    data       nuovi_vaccinati sesso_maschile sesso_femminile operatori_sanit…
##    <date>               <dbl>          <dbl>           <dbl>            <dbl>
##  1 2020-12-27            6983           3306            3677             5811
##  2 2020-12-28             950            435             515              940
##  3 2020-12-29             902            387             515              869
##  4 2020-12-30            4585           1813            2772             3832
##  5 2020-12-31           24935           9666           15269            20024
##  6 2021-01-01           10881           4184            6697             9729
##  7 2021-01-02           37620          14838           22782            32633
##  8 2021-01-03           34594          13503           21091            30019
##  9 2021-01-04           66996          26098           40898            56033
## 10 2021-01-05           78330          29900           48430            62885
## # … with 18 more rows, and 19 more variables: personale_non_sanitario <dbl>,
## #   ospiti_rsa <dbl>, prima_dose <dbl>, seconda_dose <dbl>,
## #   consegne_pfizer <dbl>, consegne_moderna <dbl>, nuove_consegne <dbl>,
## #   dosi_totale <dbl>, vaccinati_totale <dbl>, sesso_maschile_totale <dbl>,
## #   sesso_femminile_totale <dbl>, operatori_sanitari_totale <dbl>,
## #   personale_non_sanitario_totale <dbl>, ospiti_rsa_totale <dbl>,
## #   prima_dose_totale <dbl>, popolazione_2020 <dbl>, dosi_percento <dbl>,
## #   vaccinazioni_percento <dbl>, dosi_usate_percento <dbl>
…
<img src="{{< blogdown/postref >}}index_files/figure-html/unnamed-chunk-5-2.png" width="672" />

Things I learned: if you put geom_area() last, it will cover everything else.

Who’s doing better?

totals_by_area <- read_csv(
  'https://raw.githubusercontent.com/orizzontipolitici/covid19-vaccine-data/main/data_ita/totals_by_area_ita.csv', col_types = cols(area = col_factor())
) %>%
  select(-NUTS2, -nome)

totals_by_area

## # A tibble: 22 x 17
##    area  popolazione_2020 vaccinati_totale sesso_maschile sesso_femminile
##    <fct>            <dbl>            <dbl>          <dbl>           <dbl>
##  1 ABR            1293941            19035           7024           12011
##  2 BAS             553254            11162           4555            6607
##  3 CAL            1894110            20553          10151           10402
##  4 CAM            5712143           113769          54923           58846
##  5 EMR            4464119           127416          42953           84463
##  6 FVG            1206216            33216          11088           22128
##  7 LAZ            5755700           135633          52501           83132
##  8 LIG            1524826            36969          13297           23672
##  9 LOM           10027602           218710          71933          146777
## 10 MAR            1512672            28215           9984           18231
## # … with 12 more rows, and 12 more variables: operatori_sanitari <dbl>,
## #   personale_non_sanitario <dbl>, ospiti_rsa <dbl>, over80 <dbl>,
## #   prima_dose <dbl>, seconda_dose <dbl>, totale_pfizer <dbl>,
## #   totale_moderna <dbl>, totale_dosi <dbl>, dosi_ogni_mille <dbl>,
## #   vaccinati_ogni_mille <dbl>, percent_vaccini_usati <dbl>
…
