…
The same can be achieved in this way:

vaccinations %>%
  expand(
    # create a full sequence between the first and last date
    full_seq(data, 1),
    area, fornitore, fascia_anagrafica)

## # A tibble: 13,608 x 4
##    `full_seq(data, 1)` area  fornitore       fascia_anagrafica
##    <date>              <fct> <fct>           <fct>            
##  1 2020-12-27          ABR   Pfizer/BioNTech 20-29            
##  2 2020-12-27          ABR   Pfizer/BioNTech 30-39            
##  3 2020-12-27          ABR   Pfizer/BioNTech 40-49            
##  4 2020-12-27          ABR   Pfizer/BioNTech 50-59            
##  5 2020-12-27          ABR   Pfizer/BioNTech 60-69            
##  6 2020-12-27          ABR   Pfizer/BioNTech 70-79            
##  7 2020-12-27          ABR   Pfizer/BioNTech 80-89            
##  8 2020-12-27          ABR   Pfizer/BioNTech 90+              
##  9 2020-12-27          ABR   Pfizer/BioNTech 16-19            
## 10 2020-12-27          ABR   Moderna         20-29            
## # … with 13,598 more rows
…
totals_by_area_ita

## # A tibble: 22 x 19
##    nome  NUTS2 area  popolazione_2020 vaccinati_totale sesso_maschile
##    <chr> <chr> <chr>            <dbl>            <dbl>          <dbl>
##  1 Abru… ITF1  ABR            1293941            29268          10722
##  2 Basi… ITF5  BAS             553254            16609           6735
##  3 Cala… ITF6  CAL            1894110            42925          20822
##  4 Camp… ITF3  CAM            5712143           175906          85039
##  5 Emil… ITH5  EMR            4464119           195438          65908
##  6 Friu… ITH4  FVG            1206216            49170          16461
##  7 Lazio ITI4  LAZ            5755700           186682          72315
##  8 Ligu… ITC3  LIG            1524826            52122          18426
##  9 Lomb… ITC4  LOM           10027602           299631          98518
## 10 Marc… ITI3  MAR            1512672            42841          15369
## # … with 12 more rows, and 13 more variables: sesso_femminile <dbl>,
## #   operatori_sanitari <dbl>, personale_non_sanitario <dbl>, ospiti_rsa <dbl>,
## #   over80 <dbl>, prima_dose <dbl>, seconda_dose <dbl>, totale_pfizer <dbl>,
## #   totale_moderna <dbl>, totale_dosi <dbl>, dosi_ogni_mille <dbl>,
## #   vaccinati_ogni_mille <dbl>, percent_vaccini_usati <dbl>
