…
  summarise(
    totale_pfizer = sum(dosi_pfizer),
    totale_moderna = sum(dosi_moderna)
  ) %>%
  mutate(
    totale_dosi = totale_pfizer + totale_moderna
  ) %>%
  add_row(
    area = 'ITA',
    totale_pfizer = sum(.$totale_pfizer),
    totale_moderna = sum(.$totale_moderna),
    totale_dosi = sum(.$totale_dosi),
  )

## # A tibble: 22 x 4
##    area  totale_pfizer totale_moderna totale_dosi
##    <chr>         <dbl>          <dbl>       <dbl>
##  1 ABR           37380           1300       38680
##  2 BAS           20775              0       20775
##  3 CAL           62680              0       62680
##  4 CAM          171345           8200      179545
##  5 EMR          213525           7400      220925
##  6 FVG           60715              0       60715
##  7 LAZ          222670           7500      230170
##  8 LIG           77540              0       77540
##  9 LOM          379530              0      379530
## 10 MAR           43880           1500       45380
## # … with 12 more rows
…
